
test_ckf_tracks_example_full_seeding__performance_seeding_trees.root: 938bcc9b9425b12c620f5d0efa2c592817dfe92a18c309e97aa9d87412918620
test_ckf_tracks_example_full_seeding__trackstates_ckf.root: 2b07a0126ed3ec5df5551f4550dbfcee4482cd11b9bff5bac58b48b85f24409c
test_ckf_tracks_example_truth_estimate__performance_seeding_trees.root: 5c0cf9e84af64e6814ab1ddf4cbaf4be6008ad8b2371b5b0241085b19d0fc52c
test_ckf_tracks_example_truth_estimate__trackstates_ckf.root: 82bc7c860b664d5b6f36b7d892ef599a1905cc335554e98ca7b95f6363ce6e9d
test_ckf_tracks_example_truth_smeared__trackstates_ckf.root: cc6bc5fc00c628f17f2dc9758faef6bb6468e831e796e149fb361438d538ab48
test_ckf_tracks_example_full_seeding__tracksummary_ckf.root: fd2cda11a1b39a939205ccc0c6af3e446b7c79946cbbb2b4937f45536ea9273c
test_ckf_tracks_example_truth_estimate__tracksummary_ckf.root: 93e71ec6456caac6c496c56d240da1e77153a545a12692deb0a826f0a31bbf58
test_ckf_tracks_example_truth_smeared__tracksummary_ckf.root: c63633077f31bb38a7e0c0c4db0eca215751ce5e1c7e1ac933927e9feeec15e4


	
test_fatras__fatras_particles_final.root: 09b0d46ad7641fc5af97650cdcbf0e6c85966933a2e1b2bfcf7fbb9c6d90b2e1
test_fatras__fatras_particles_initial.root: 712a41d95ed1fccafccf708afddcd2177793934bb80cd40b1d99b532c7a21031
test_fatras__hits.root: f890599a8c94bc80270636c64039f8a0a7d8ddd716a15306d5ca61f15f8da5e8
test_seeding__estimatedparams.root: 50e281ec30150bdd13635dcbc0a1191be26a189a9ffd5cf1103307a62e6c9e47
test_seeding__performance_seeding_trees.root: c900a70a9881ce637a73ff730de4b2f4b6c0446854d666f70c7fc9c44c893666
test_seeding__particles.root: 4943f152bfad6ca6302563b57e495599fad4fea43b8e0b41abe5b8de31b391bc
test_seeding__fatras_particles_final.root: 934e290545090fe87d177bf40a78cf9375420e854433c2ef5a6d408fb3744d9d
test_seeding__fatras_particles_initial.root: 4943f152bfad6ca6302563b57e495599fad4fea43b8e0b41abe5b8de31b391bc
test_seeding_orthogonal__estimatedparams.root: a86e46a737049b325decdc326eade5cbc30302433a810d223c594fbd7c264df5
test_seeding_orthogonal__performance_seeding_trees.root: dd114b993bfa73e3ae38558f1b2172ab83ab390b70d101010392ccac2b1b125e
test_seeding_orthogonal__particles.root: 4943f152bfad6ca6302563b57e495599fad4fea43b8e0b41abe5b8de31b391bc
test_seeding_orthogonal__fatras_particles_final.root: 934e290545090fe87d177bf40a78cf9375420e854433c2ef5a6d408fb3744d9d
test_seeding_orthogonal__fatras_particles_initial.root: 4943f152bfad6ca6302563b57e495599fad4fea43b8e0b41abe5b8de31b391bc
test_propagation__propagation_steps.root: 2d9a86e1097b8f0a845f33b05830f6b9c78cdeaeeb01685753e8dc9b434c7f9d
test_particle_gun__particles.root: 78a89f365177423d0834ea6f1bd8afe1488e72b12a25066a20bd9050f5407860
test_digitization_example__measurements.root: f2dd54cd8315e4656136571d4802a69293d7feb71f427706410b8f0d2ad76265

test_material_recording__geant4_material_tracks.root: 166dfb9f7a0a19d2206cf7c5ada02189e0b04a49ec7c25a59007e3ee23a62035
test_material_mapping__material-map_tracks.root: 80beaaf4b9acee9eef6f2bb2094d1c819edb07f22e949833a0dc4143a697ad32
test_material_mapping__propagation-material.root: 15d5dfd89583b965ec5a2625126a190b4af92f21b4f2f9ce2946e98bf8dff34a
test_volume_material_mapping__material-map-volume_tracks.root: 14815e3f42a64c140450302f06a4381ede147ee4edbb8a88f3dfac7e7ab53fa7
test_volume_material_mapping__propagation-volume-material.root: 47b488e258ca4c964ba9f68a65e4ea576bc096f2c8476b1363b9f98b5cc96820

test_root_prop_step_writer[configPosConstructor]__prop_steps.root: 398c217a6a3c9bd11cea3ecc2b825b2c6738f88c8f7c385cd2503ee8893b35a5
test_root_prop_step_writer[configKwConstructor]__prop_steps.root: 398c217a6a3c9bd11cea3ecc2b825b2c6738f88c8f7c385cd2503ee8893b35a5
test_root_prop_step_writer[kwargsConstructor]__prop_steps.root: 398c217a6a3c9bd11cea3ecc2b825b2c6738f88c8f7c385cd2503ee8893b35a5
test_root_particle_writer[configPosConstructor]__particles.root: 7d2c8cce6f491c22ce149b526866bdfa8795cfac20105a7c33fce096d52d47d8
test_root_particle_writer[configKwConstructor]__particles.root: 7d2c8cce6f491c22ce149b526866bdfa8795cfac20105a7c33fce096d52d47d8
test_root_particle_writer[kwargsConstructor]__particles.root: 7d2c8cce6f491c22ce149b526866bdfa8795cfac20105a7c33fce096d52d47d8
test_root_meas_writer__meas.root: 5c7a9c196b92937ddaebf34646a5ffa12d32316883069053dc6fe1ae6de4d961
test_root_simhits_writer[configPosConstructor]__meas.root: a2af481d95c62a813f6f069cb5499c0421a6326291df830a60a4a91988cc5491
test_root_simhits_writer[configKwConstructor]__meas.root: a2af481d95c62a813f6f069cb5499c0421a6326291df830a60a4a91988cc5491
test_root_simhits_writer[kwargsConstructor]__meas.root: a2af481d95c62a813f6f069cb5499c0421a6326291df830a60a4a91988cc5491
test_root_clusters_writer[configPosConstructor]__clusters.root: 7e452af7243d282dd0a8f5aa2844e150ef44364980bf3641718899068a1a1ecb
test_root_clusters_writer[configKwConstructor]__clusters.root: 7e452af7243d282dd0a8f5aa2844e150ef44364980bf3641718899068a1a1ecb
test_root_clusters_writer[kwargsConstructor]__clusters.root: 7e452af7243d282dd0a8f5aa2844e150ef44364980bf3641718899068a1a1ecb
test_root_material_writer__material.root: e3b0c44298fc1c149afbf4c8996fb92427ae41e4649b934ca495991b7852b855

test_truth_tracking[0.0]__trackstates_fitter.root: 58249c45808c38839513fc4e4eeb9108ede4485598526b25ec7b748c473c509d
test_truth_tracking[0.0]__tracksummary_fitter.root: 7cb528b8659102815899e0b65ecef64596f3fe3e389e6463ab0b344c6a57cad3
test_truth_tracking[0.0]__performance_track_finder.root: 76a990d595b6e097da2bed447783bd63044956e5649a5dd6fd7a6a3434786877
test_truth_tracking[1000.0]__trackstates_fitter.root: 2d07f506aeb02301311b407197167994ca43b2c2775caf80874fb0581872db81
test_truth_tracking[1000.0]__tracksummary_fitter.root: ab1dfaa084206d3a91c7038ab3a6795b1dc83f62353cb017d1e7a30e4ee5957d
test_truth_tracking[1000.0]__performance_track_finder.root: 76a990d595b6e097da2bed447783bd63044956e5649a5dd6fd7a6a3434786877

test_digitization_example_input__measurements.root: ccc92f0ad538d1b62d98f19f947970bcc491843e54d8ffeed16ad2e226b8caee
test_digitization_example_input__particles.root: 78a89f365177423d0834ea6f1bd8afe1488e72b12a25066a20bd9050f5407860

test_vertex_fitting_reading[Truth-False-100]__performance_vertexing.root: 489b058ee78b4d01075fc2c594ffeed4af07c306122e577857b1b7e9357888cf
test_vertex_fitting_reading[Iterative-False-100]__performance_vertexing.root: 85754514dff6640401af5cafc8dffb7ffa02ffd9358f658d89c9c39b623111e3
test_vertex_fitting_reading[Iterative-True-100]__performance_vertexing.root: 52604a12106ba8f9a5b355ae1a421d375cabb3ac1c7fcd56e34fc35c3ea7d37d
test_vertex_fitting_reading[AMVF-False-100]__performance_vertexing.root: 8fb55f5aceae330e7738986030d9d1726b9f0b825449d22f7a13f7580890b7d5
test_vertex_fitting_reading[AMVF-True-100]__performance_vertexing.root: 04c73eb824bc0ce1f966264ca080bc04ee5fcfdc310f82d8faccbd102100102d
